{
  "installed": {
    "client_id": "654284928906-kqlb93p35htvatbr06ipdef8ffm5eqaa.apps.googleusercontent.com",
    "client_secret":"Eltziy4i43ZKxIs6dWEfd1Mx",
    "redirect_uris": ["http://localhost", "urn:ietf:wg:oauth:2.0:oob"],
    "auth_uri": "https://accounts.google.com/o/oauth2/auth",
    "token_uri": "https://accounts.google.com/o/oauth2/token"
  }
}
